[
  {
    "idZahtjeva": 1,
    "username": "dady",
    "ime": "David",
    "prezime": "Ivušić",
    "mobilniTelefon": "0919167545",
    "email": "ivusic.dady@gmail.com",
    "nacinKontakta": "EMAIL",
    "datumOglasa": "1.1.2000",
    "tekstZahtjeva": "ovo je oglas za bušilicu",
    "fotoUrl": "fotoUrl",
    "poveznicaNaProizvod": "https://pevex.hr/zeljeznarija/elektricni-rucni-alat/busilica.html",
    "snaga": 100,
    "isAkumulatorski": false,
    "kategorijaAlata": "bušilice",
    "nazivAlata": "bušilica za bušenje",
    "podvrsta": "bušilica za bušenje zidova",
    "mjestoPrimjeneAlata": "bilo gdje",
    "grad":"Zagreb",
    "jeAktivan": true,
    "maxUdaljenost": 10,
    "komentari":[
      {
        "idKomentara": 3,
        "datumKomentara": "1.1.2020",
        "tekstKomentara": "Ovo je dobar alat",
        "lajkao": true,
        "lajkovi":[
          {
            "idLajka": 19,
            "datumLajka": "1.1.2020"
          }
        ]
      }
    ],
    "ponude": [
      {"username": "David"},
      {"username": "Marko"}
    ]
  },

  {
    "idZahtjeva": 2,
    "username": "dady",
    "ime": "Davida",
    "prezime": "Ivušića",
    "mobilniTelefon": "0919167545",
    "email": "ivusic.dady@gmail.com",
    "nacinKontakta": "TELEFON",
    "datumOglasa": "1.1.2000",
    "tekstZahtjeva": "ovo je oglas za čekić",
    "fotoUrl": "fotoUrl",
    "poveznicaNaProizvod": "https://pevex.hr/zeljeznarija/elektricni-rucni-alat/busilica.html",
    "snaga": 100,
    "isAkumulatorski": false,
    "kategorijaAlata": "čekići",
    "nazivAlata": "čekić za lupanje",
    "podvrsta": "čekić za lupanje zidova",
    "mjestoPrimjeneAlata": "bilo gdje",
    "grad":"Zagreb",
    "jeAktivan": false,
    "maxUdaljenost": 10,
    "komentari": [
      {
        "idKomentara": 3,
        "vlasnikKomentara": 11,
        "datumKomentara": "1.1.2020",
        "tekstKomentara": "Ovo je dobar alat",
        "lajkao": true,
        "lajkovi":[
          {
            "idLajka": 19,
            "datumLajka": "1.1.2020"
          }
        ]
      },
      {
        "idKomentara": 3,
        "vlasnikKomentara": 10,
        "datumKomentara": "1.1.2020",
        "tekstKomentara": "Ovo je vrlo dobar alat",
        "lajkao": false,
        "lajkovi":[
          {
            "idLajka": 19,
            "datumLajka": "1.1.2020"
          }
        ]
      }
    ]
  }
]
