[
  {
    "idZahtjeva": 1,
    "username": "dady",
    "ime": "David",
    "prezime": "Ivušić",
    "mobilniTelefon": "0919167545",
    "email": "ivusic.dady@gmail.com",
    "nacinKontakta": "email",
    "datumZahtjeva": "1.1.2000",
    "tekstZahtjeva": "ovo je oglas za bušilicu",
    "fotografija": "fotografija",
    "poveznicaNaProizvod": "https://pevex.hr/zeljeznarija/elektricni-rucni-alat/busilica.html",
    "snaga": "100kW",
    "akumulatorski": "ne",
    "nazivKategorije": "bušilice",
    "vrsta": "bušilica za bušenje",
    "podvrsta": "bušilica za bušenje zidova",
    "nazivMjestaPrimjene": "bilo gdje",
    "trebaMiOd": "string",
    "trebaMiDo": "string",
    "maxUdaljenost": "number",
    "grad":"Zagreb",
    "komentari": [{
                    "idKomentara": 1,
                    "datumKomentara": "1.1.2020",
                    "tekstKomentara": "Ovo je dobar alat",
                    "lajkao": true,
                    "lajkovi": [{
                                  "idLajka": 1,
                                  "datumLajka": "1.1.2020"
                                },
                                {
                                  "idLajka": 2,
                                  "datumLajka": "1.1.2020"
                                }]
                  },
                  {
                    "idKomentara": 2,
                    "datumKomentara": "1.1.2020",
                    "tekstKomentara": "Ovo je dobar alat",
                    "lajkao": false,
                    "lajkovi": [{
                                  "idLajka": 3,
                                  "datumLajka": "1.1.2020"
                                },
                                {
                                  "idLajka": 4,
                                  "datumLajka": "1.1.2020"
                                }]
                  }],
    "trebamSavjet": true
  },

  {
    "idZahtjeva": 2,
    "username": "dady1",
    "ime": "Davida",
    "prezime": "Ivušića",
    "mobilniTelefon": "0919167545",
    "email": "ivusic.dady@gmail.com",
    "nacinKontakta": "mobitel",
    "datumZahtjeva": "1.1.2000",
    "tekstZahtjeva": "ovo je oglas za čekić",
    "fotografija": "fotografija",
    "poveznicaNaProizvod": "https://pevex.hr/zeljeznarija/elektricni-rucni-alat/busilica.html",
    "nazivKategorije": "čekići",
    "vrsta": "čekić za lupanje",
    "podvrsta": "čekić za lupanje zidova",
    "nazivMjestaPrimjene": "bilo gdje",
    "trebaMiOd": "string",
    "trebaMiDo": "string",
    "maxUdaljenost": "number",
    "grad":"Zagreb",
    "komentari": [{
                    "idKomentara": 3,
                    "vlasnikKomentara": 11,
                    "datumKomentara": "1.1.2020",
                    "tekstKomentara": "Ovo je dobar alat",
                    "lajkao": true,
                    "lajkovi": [{
                                  "idLajka": 19,
                                  "datumLajka": "1.1.2020"
                                },
                                {
                                  "idLajka": 20,
                                  "datumLajka": "1.1.2020"
                                }]
                  },
                  {
                    "idKomentara": 4,
                    "vlasnikKomentara": 10,
                    "datumKomentara": "1.1.2020",
                    "tekstKomentara": "Ovo je dobar alat",
                    "lajkao": false,
                    "lajkovi": [{
                                  "idLajka": 5,
                                  "datumLajka": "1.1.2020"
                                },
                                {
                                  "idLajka": 6,
                                  "datumLajka": "1.1.2020"
                                }]
                  }],
    "trebamSavjet": false
  },

  {
    "idZahtjeva": 3,
    "username": "dady2",
    "ime": "Davidov",
    "prezime": "Ivušičić",
    "mobilniTelefon": "0919167545",
    "email": "ivusic.dady@gmail.com",
    "nacinKontakta": "email",
    "datumZahtjeva": "1.1.2000",
    "tekstZahtjeva": "ovo je oglas za lopatu",
    "fotografija": "fotografija",
    "poveznicaNaProizvod": "https://pevex.hr/zeljeznarija/elektricni-rucni-alat/busilica.html",
    "nazivKategorije": "lopate",
    "vrsta": "lopata za kopanje",
    "podvrsta": "lopata za kopanje pijeska",
    "nazivMjestaPrimjene": "bilo gdje",
    "trebaMiOd": "string",
    "trebaMiDo": "string",
    "maxUdaljenost": "number",
    "grad":"Zagreb",
    "komentari": [{
                    "idKomentara": 5,
                    "datumKomentara": "1.1.2020",
                    "tekstKomentara": "Ovo je dobar alat",
                    "lajkao": false,
                    "lajkovi": [{
                                  "idLajka": 7,
                                  "datumLajka": "1.1.2020"
                                },
                                {
                                  "idLajka": 8,
                                  "datumLajka": "1.1.2020"
                                }]
                  },
                  {
                    "idKomentara": 6,
                    "datumKomentara": "1.1.2020",
                    "tekstKomentara": "Ovo je dobar alat",
                    "lajkao": false,
                    "lajkovi": [{
                                  "idLajka": 9,
                                  "datumLajka": "1.1.2020"
                                },
                                {
                                  "idLajka": 10,
                                  "datumLajka": "1.1.2020"
                                }]
                  }],
    "trebamSavjet": false
  },

  {
    "idZahtjeva": 4,
    "username": "dady3",
    "ime": "Davidovski",
    "prezime": "Ivušićovski",
    "mobilniTelefon": "0919167545",
    "email": "ivusic.dady@gmail.com",
    "nacinKontakta": "mobitel",
    "datumZahtjeva": "1.1.2000",
    "tekstZahtjeva": "ovo je oglas za metar",
    "fotografija": "fotografija",
    "poveznicaNaProizvod": "https://pevex.hr/zeljeznarija/elektricni-rucni-alat/busilica.html",
    "nazivKategorije": "metri",
    "vrsta": "metar za mjerenje",
    "podvrsta": "metar za mjerenje zidova",
    "nazivMjestaPrimjene": "bilo gdje",
    "trebaMiOd": "string",
    "trebaMiDo": "string",
    "maxUdaljenost": "number",
    "grad":"Zagreb",
    "komentari": [{
                    "idKomentara": 7,
                    "datumKomentara": "1.1.2020",
                    "tekstKomentara": "Ovo je dobar alat",
                    "lajkao": true,
                    "lajkovi": [{
                                  "idLajka": 11,
                                  "datumLajka": "1.1.2020"
                                },
                                {
                                  "idLajka": 12,
                                  "datumLajka": "1.1.2020"
                                }]
                  },
                  {
                    "idKomentara": 8,
                    "datumKomentara": "1.1.2020",
                    "tekstKomentara": "Ovo je dobar alat",
                    "lajkao": false,
                    "lajkovi": [{
                                  "idLajka": 13,
                                  "datumLajka": "1.1.2020"
                                },
                                {
                                  "idLajka": 14,
                                  "datumLajka": "1.1.2020"
                                }]
                  }],
    "trebamSavjet": true
  },

  {
    "idZahtjeva": 5,
    "username": "dady4",
    "ime": "Dav",
    "prezime": "Ivu",
    "mobilniTelefon": "0919167545",
    "email": "ivusic.dady@gmail.com",
    "nacinKontakta": "email",
    "datumZahtjeva": "1.1.2000",
    "tekstZahtjeva": "ovo je oglas za brusilicu",
    "fotografija": "fotografija",
    "poveznicaNaProizvod": "https://pevex.hr/zeljeznarija/elektricni-rucni-alat/busilica.html",
    "snaga": "200kW",
    "akumulatorski": "da",
    "nazivKategorije": "brusilice",
    "vrsta": "brusilica za brusenje",
    "podvrsta": "brusilica za brusenje zidova",
    "nazivMjestaPrimjene": "bilo gdje unutra",
    "trebaMiOd": "string",
    "trebaMiDo": "string",
    "maxUdaljenost": "number",
    "grad":"Zagreb",
    "komentari": [{
                    "idKomentara": 9,
                    "datumKomentara": "1.1.2020",
                    "tekstKomentara": "Ovo je dobar alat",
                    "lajkao": false,
                    "lajkovi": [{
                                  "idLajka": 15,
                                  "datumLajka": "1.1.2020"
                                },
                                {
                                  "idLajka": 16,
                                  "datumLajka": "1.1.2020"
                                }]
                  },
                  {
                    "idKomentara": 10,
                    "datumKomentara": "1.1.2020",
                    "tekstKomentara": "Ovo je dobar alat",
                    "lajkao": true,
                    "lajkovi": [{
                                  "idLajka": 17,
                                  "datumLajka": "1.1.2020"
                                },
                                {
                                  "idLajka": 18,
                                  "datumLajka": "1.1.2020"
                                }]
                  }],
    "trebamSavjet": true
  }
]
